onda.vcd
$date
	Mon Nov 25 00:11:45 2024
$end
$version
	ModelSim Version 2020.1
$end
$timescale
	1ns
$end

$scope module Testbench_Unidad_Control_ALU $end
$var reg 2 ! alu_op [1:0] $end
$var reg 3 " funct3 [2:0] $end
$var reg 7 # funct7 [6:0] $end
$var wire 1 $ alu_control [3] $end
$var wire 1 % alu_control [2] $end
$var wire 1 & alu_control [1] $end
$var wire 1 ' alu_control [0] $end

$scope module uut $end
$var wire 1 ( alu_op [1] $end
$var wire 1 ) alu_op [0] $end
$var wire 1 * funct3 [2] $end
$var wire 1 + funct3 [1] $end
$var wire 1 , funct3 [0] $end
$var wire 1 - funct7 [6] $end
$var wire 1 . funct7 [5] $end
$var wire 1 / funct7 [4] $end
$var wire 1 0 funct7 [3] $end
$var wire 1 1 funct7 [2] $end
$var wire 1 2 funct7 [1] $end
$var wire 1 3 funct7 [0] $end
$var reg 4 4 alu_control [3:0] $end
$upscope $end
$upscope $end
$enddefinitions $end
#0
$dumpvars
b0 !
b0 "
b0 #
b10 4
0'
1&
0%
0$
03
02
01
00
0/
0.
0-
0,
0+
0*
0)
0(
$end
#10
b1 !
1)
b110 4
1%
#20
b10 !
0)
1(
b10 4
0%
#30
b100000 #
1.
b110 4
1%
#40
b111 "
b0 #
0.
1,
1+
1*
b0 4
0&
0%
#50
b110 "
0,
b1 4
1'
#60
b10 "
0*
b111 4
1&
1%
#70
b11 !
b0 "
0+
1)
b1111 4
1$
